{
  "kind": "collectionType",
  "collectionName": "blogs",
  "info": {
    "singularName": "blog",
    "pluralName": "blogs",
    "displayName": "Blog"
  },
  "options": {
    "draftAndPublish": false
  },
  "pluginOptions": {},
  "attributes": {
    "Title": {
      "type": "string",
      "required": true
    },
    "authorName": {
      "type": "string",
      "required": true
    },
    "Category": {
      "type": "string",
      "required": true
    },
    "SubCategory": {
      "type": "string",
      "required": true
    },
    "Content": {
      "type": "richtext",
      "required": true
    }
  }
}
